…
    dt_small %>%
      select(deck_cond) %>% 
      group_by(deck_cond) %>% 
      summarise(n = n())

    ## # A tibble: 78,282 x 2
    ##    deck_cond     n
    ##        <dbl> <int>
    ##  1      1.92     1
    ##  2      2.1      1
    ##  3      3.6      1
    ##  4      3.84     1
    ##  5      4.23     1
    ##  6      4.56     1
    ##  7      5.2      2
    ##  8      6.71     1
    ##  9      7.32     1
    ## 10      7.38     1
    ## # … with 78,272 more rows
…
    dim(dt_small)

    ## [1] 616046      7

    # bridges with the same id code?
    dt_small %>% 
      select(bridge_id, year_built, overall_bridge_cond) %>% 
      group_by(bridge_id) %>% 
      summarise(n = n())

    ## # A tibble: 561,249 x 2
    ##    bridge_id           n
    ##    <chr>           <int>
    ##  1 000000000000001     1
    ##  2 000000000000002     2
    ##  3 000000000000003     2
    ##  4 000000000000004     2
    ##  5 000000000000005     2
    ##  6 000000000000007     2
    ##  7 000000000000008     2
    ##  8 000000000000009     3
    ##  9 000000000000010     3
    ## 10 000000000000011     2
    ## # … with 561,239 more rows
…
    #  In this example, there are duplicate bridge_id numbers, but they are not duplicate rows

    # Trying to remove duplicates below
    dt_small %>% 
      group_by(bridge_id, year_built, state, bridge_cond, overall_bridge_cond, deck_cond) %>% 
      summarise(n = n())

    ## # A tibble: 616,045 x 7
    ## # Groups:   bridge_id, year_built, state, bridge_cond, overall_bridge_cond
    ## #   [616,044]
    ##    bridge_id  year_built state bridge_cond overall_bridge_… deck_cond     n
    ##    <chr>           <int> <int> <chr>                  <int>     <dbl> <int>
    ##  1 000000000…       1963    42 G                          7      410.     1
    ##  2 000000000…       1934    35 F                          5      463.     1
    ##  3 000000000…       1990    42 G                          7      408.     1
    ##  4 000000000…       1963    42 F                          6      428.     1
    ##  5 000000000…       1964    51 P                          4      645.     1
    ##  6 000000000…       1900    45 P                          4     2026.     1
    ##  7 000000000…       1990    42 G                          7      590.     1
    ##  8 000000000…       1963    42 F                          5      635.     1
    ##  9 000000000…       1970    51 F                          5     2024.     1
    ## 10 000000000…       1935    26 G                          7      127.     1
    ## # … with 616,035 more rows
…
